# Blender v2.77 (sub 0) OBJ File: 'EnvironmentalClutter.blend'
# www.blender.org
mtllib LittleRock.mtl
o Sphere
v -0.397931 -0.285259 -0.006815
v 0.006676 -0.359753 0.005039
v 0.018186 0.168557 -0.366929
v -0.001514 -0.286583 -0.383822
v 0.404764 0.174219 0.019887
v 0.480174 -0.316343 0.018815
v 0.007893 0.193069 0.369484
v -0.012297 -0.322453 0.476866
v 0.016828 0.261925 -0.022234
v -0.365407 0.221805 -0.016597
v -0.008463 -0.025384 -0.507799
v 0.515271 -0.035107 0.001587
v -0.006249 -0.034950 0.551467
v -0.538015 -0.032991 -0.033257
v -0.276890 0.163496 0.277477
v -0.363506 -0.268369 0.299389
v -0.394624 -0.049152 0.310562
v 0.326673 -0.303857 0.321331
v 0.276140 0.190055 0.247030
v 0.349462 -0.036701 0.294127
v 0.279695 -0.264082 -0.266605
v 0.289008 0.134105 -0.244752
v 0.304188 -0.034393 -0.295054
v -0.283951 -0.259540 -0.298450
v -0.250637 0.152190 -0.309229
v -0.334911 -0.021429 -0.371547
v -0.207622 -0.331906 -0.000697
v -0.005913 -0.160005 -0.463662
v -0.152459 -0.276105 -0.346578
v 0.517932 -0.181235 0.010034
v 0.386200 -0.292285 -0.135096
v 0.353355 0.154313 -0.120317
v -0.009792 -0.186555 0.538096
v 0.170087 -0.317900 0.407831
v 0.148054 0.211998 0.304004
v -0.181732 0.253534 -0.020494
v -0.328335 0.209722 0.135686
v -0.487192 -0.165530 -0.020846
v 0.018892 0.222406 -0.202400
v 0.003248 -0.332855 -0.201939
v -0.125302 0.162177 -0.344263
v 0.220419 0.225732 -0.000784
v 0.256571 -0.349988 0.012656
v 0.012253 0.240147 0.177392
v -0.003073 -0.353109 0.251460
v -0.388104 -0.278963 0.156452
v 0.004665 0.077318 -0.452917
v 0.473533 0.076231 0.011897
v -0.000793 0.095527 0.471991
v -0.469549 0.101657 -0.025340
v -0.486650 -0.042439 0.140758
v 0.179078 -0.035249 0.441039
v 0.425377 -0.034904 -0.148157
v -0.174475 -0.022461 -0.458597
v -0.137799 0.150399 0.343803
v -0.201985 -0.297496 0.395040
v -0.206874 -0.043077 0.452197
v -0.386437 -0.168848 0.307261
v -0.338645 0.073944 0.292165
v 0.412819 -0.314680 0.181047
v 0.345177 0.185823 0.142811
v 0.451364 -0.035944 0.147430
v 0.342034 -0.180584 0.310661
v 0.314040 0.088206 0.269832
v 0.147989 -0.277808 -0.330033
v 0.163388 0.152982 -0.308941
v 0.151196 -0.030130 -0.415792
v 0.292132 -0.156307 -0.283821
v 0.298936 0.058578 -0.271633
v -0.343100 -0.275269 -0.163446
v -0.311698 0.188374 -0.173487
v -0.452270 -0.026356 -0.208574
v -0.313541 -0.148091 -0.338296
v -0.294980 0.074286 -0.344885
v -0.396100 0.088427 -0.191507
v -0.413395 -0.156296 -0.185803
v 0.155463 0.067524 -0.374937
v 0.145192 -0.157730 -0.387300
v 0.409870 0.082240 0.143056
v 0.449055 -0.181557 0.161710
v -0.170786 0.058690 0.411409
v -0.206242 -0.177994 0.441106
v -0.163388 -0.153624 -0.417325
v 0.420448 -0.168646 -0.140336
v 0.172509 -0.184111 0.441946
v -0.454957 -0.167195 0.145430
v -0.160103 0.214732 0.167261
v -0.422125 0.094083 0.134728
v -0.206520 -0.324567 0.206932
v 0.185094 0.229235 0.157434
v 0.161384 0.097810 0.382910
v 0.216817 -0.345442 0.220816
v 0.194993 0.195211 -0.161450
v 0.401030 0.066337 -0.131858
v 0.205319 -0.322800 -0.169466
v -0.152953 0.214472 -0.189581
v -0.148706 0.075491 -0.415427
v -0.179339 -0.313278 -0.183415
vt 0.0739 0.1131
vt 0.0703 0.1075
vt 0.0751 0.1074
vt 0.0807 0.1102
vt 0.0798 0.0897
vt 0.0769 0.0846
vt 0.0802 0.0801
vt 0.0852 0.0866
vt 0.0708 0.0847
vt 0.0727 0.0799
vt 0.0756 0.0496
vt 0.0822 0.0527
vt 0.0762 0.0546
vt 0.0712 0.0547
vt 0.0696 0.0668
vt 0.0683 0.0699
vt 0.0646 0.0689
vt 0.0654 0.0658
vt 0.0705 0.0749
vt 0.0649 0.0743
vt 0.0611 0.0467
vt 0.0626 0.0530
vt 0.0590 0.0512
vt 0.0532 0.0468
vt 0.0512 0.0684
vt 0.0539 0.0754
vt 0.0492 0.0793
vt 0.0443 0.0700
vt 0.0594 0.0749
vt 0.0572 0.0795
vt 0.0585 0.1145
vt 0.0500 0.1132
vt 0.0570 0.1082
vt 0.0613 0.1079
vt 0.0609 0.0941
vt 0.0607 0.0894
vt 0.0643 0.0900
vt 0.0650 0.0942
vt 0.0590 0.0845
vt 0.0648 0.0849
vt 0.0612 0.1034
vt 0.0611 0.0989
vt 0.0658 0.0985
vt 0.0657 0.1030
vt 0.0509 0.0541
vt 0.0485 0.0614
vt 0.0395 0.0607
vt 0.0435 0.0515
vt 0.0711 0.0592
vt 0.0710 0.0638
vt 0.0663 0.0627
vt 0.0663 0.0588
vt 0.0817 0.1025
vt 0.0826 0.0948
vt 0.0902 0.0930
vt 0.0883 0.1030
vt 0.0482 0.1057
vt 0.0464 0.0983
vt 0.0565 0.0994
vt 0.0567 0.1038
vt 0.0498 0.0912
vt 0.0532 0.0840
vt 0.0572 0.0887
vt 0.0568 0.0941
vt 0.0623 0.0577
vt 0.0619 0.0624
vt 0.0576 0.0621
vt 0.0583 0.0567
vt 0.0618 0.0663
vt 0.0616 0.0702
vt 0.0587 0.0716
vt 0.0581 0.0668
vt 0.0826 0.0600
vt 0.0829 0.0672
vt 0.0757 0.0648
vt 0.0759 0.0597
vt 0.0795 0.0713
vt 0.0761 0.0755
vt 0.0720 0.0709
vt 0.0738 0.0678
vt 0.0704 0.1025
vt 0.0704 0.0975
vt 0.0751 0.0965
vt 0.0751 0.1019
vt 0.0697 0.0935
vt 0.0689 0.0896
vt 0.0735 0.0892
vt 0.0743 0.0928
vt 0.0656 0.1076
vt 0.0902 0.0695
vt 0.0852 0.0748
vt 0.0883 0.0509
vt 0.0892 0.0602
vt 0.0662 0.0548
vt 0.0363 0.0972
vt 0.0428 0.0883
vt 0.0429 0.1182
vt 0.0396 0.1077
vt 0.0864 0.1130
vt 0.0475 0.0424
vt 0.0652 0.0798
vt 0.0670 0.1159
vt 0.0684 0.1242
vt 0.0556 0.1212
vt 0.0596 0.0403
vt 0.0718 0.0383
vt 0.0690 0.0465
vt 0.0800 0.0446
vt 0.0774 0.1186
vn -0.1780 -0.9667 -0.1836
vn -0.5374 -0.7853 -0.3073
vn -0.4881 -0.7015 -0.5192
vn -0.2655 -0.7745 -0.5742
vn -0.2812 0.5449 -0.7899
vn -0.1826 0.8140 -0.5514
vn 0.1071 0.8088 -0.5782
vn 0.1210 0.5357 -0.8357
vn -0.1203 0.9512 -0.2841
vn 0.0720 0.9595 -0.2721
vn 0.1495 -0.9556 -0.2537
vn 0.3301 -0.7125 -0.6192
vn 0.5049 -0.5862 -0.6336
vn 0.5567 -0.6689 -0.4926
vn 0.7859 0.3696 -0.4956
vn 0.5708 0.7275 -0.3805
vn 0.6423 0.7659 -0.0303
vn 0.8984 0.4384 -0.0265
vn 0.2530 0.9303 -0.2655
vn 0.2272 0.9700 -0.0865
vn 0.1148 -0.9873 0.1094
vn 0.6356 -0.6821 0.3615
vn 0.5629 -0.5903 0.5785
vn 0.3530 -0.7087 0.6108
vn 0.4666 0.4757 0.7456
vn 0.2704 0.8347 0.4797
vn -0.0295 0.8381 0.5446
vn 0.0117 0.5880 0.8088
vn 0.1737 0.9784 0.1118
vn -0.0461 0.9824 0.1807
vn -0.2058 -0.9749 0.0844
vn -0.4040 -0.7287 0.5530
vn -0.6193 -0.6470 0.4447
vn -0.6165 -0.7720 0.1545
vn -0.7853 0.5083 0.3535
vn -0.4459 0.8401 0.3089
vn -0.5120 0.8577 -0.0467
vn -0.8316 0.5522 -0.0590
vn -0.1278 0.9606 0.2467
vn -0.1147 0.9925 -0.0410
vn -0.9005 -0.3447 0.2649
vn -0.9282 0.0993 0.3586
vn -0.9933 0.0643 -0.0955
vn -0.8896 -0.4447 -0.1043
vn 0.5216 -0.1206 0.8446
vn 0.5536 0.1919 0.8103
vn 0.0240 0.2112 0.9771
vn 0.0071 -0.2137 0.9768
vn 0.7906 -0.1496 -0.5937
vn 0.8122 0.1054 -0.5737
vn 0.9835 0.1646 -0.0757
vn 0.9888 -0.1296 -0.0739
vn -0.3467 -0.3934 -0.8514
vn -0.3741 0.0766 -0.9242
vn 0.0895 0.0710 -0.9934
vn 0.0805 -0.3947 -0.9153
vn -0.5075 -0.1915 0.8401
vn -0.5128 0.1902 0.8372
vn -0.7578 0.1508 0.6348
vn -0.7720 -0.2184 0.5969
vn -0.4235 0.5205 0.7414
vn -0.2984 0.7801 0.5499
vn -0.3893 0.7497 0.5352
vn -0.6303 0.4882 0.6036
vn 0.8731 -0.0649 0.4831
vn 0.8582 0.1711 0.4839
vn 0.7242 0.1792 0.6659
vn 0.7221 -0.0415 0.6905
vn 0.8003 0.3936 0.4523
vn 0.5662 0.7720 0.2889
vn 0.4994 0.7254 0.4736
vn 0.6641 0.3917 0.6368
vn 0.4823 -0.2919 -0.8259
vn 0.5389 0.0529 -0.8407
vn 0.6877 0.0584 -0.7236
vn 0.6498 -0.1916 -0.7355
vn 0.4887 0.4130 -0.7685
vn 0.3714 0.7438 -0.5557
vn 0.5418 0.6510 -0.5317
vn 0.6638 0.3321 -0.6701
vn -0.7940 -0.4176 -0.4417
vn -0.8612 0.0648 -0.5040
vn -0.6620 0.0743 -0.7458
vn -0.6193 -0.3820 -0.6859
vn -0.7255 0.5331 -0.4353
vn -0.4461 0.8163 -0.3669
vn -0.3840 0.7557 -0.5304
vn -0.5450 0.5259 -0.6530
vn -0.5877 -0.8046 -0.0847
vn 0.0389 -0.7675 -0.6399
vn 0.7305 -0.6793 -0.0703
vn -0.0332 -0.7383 0.6736
vn 0.0449 0.9973 -0.0589
vn -0.1885 -0.9809 -0.0479
vn -0.0395 -0.9978 -0.0533
vn -0.0523 -0.9944 0.0915
vn 0.1157 -0.9907 -0.0720
vn -0.0165 -0.9791 -0.2024
usemtl Material
s 1
f 98/1/1 70/2/2 24/3/3 29/4/4
f 97/5/5 41/6/6 3/7/7 47/8/8
f 96/9/9 39/10/10 3/7/7 41/6/6
f 95/11/11 65/12/12 21/13/13 31/14/14
f 94/15/15 32/16/16 5/17/17 48/18/18
f 93/19/19 42/20/20 5/17/17 32/16/16
f 92/21/21 60/22/22 18/23/23 34/24/24
f 91/25/25 35/26/26 7/27/27 49/28/28
f 90/29/29 44/30/30 7/27/27 35/26/26
f 89/31/31 56/32/32 16/33/33 46/34/34
f 88/35/35 37/36/36 10/37/37 50/38/38
f 87/39/39 36/40/40 10/37/37 37/36/36
f 86/41/41 51/42/42 14/43/43 38/44/44
f 85/45/45 52/46/46 13/47/47 33/48/48
f 84/49/49 53/50/50 12/51/51 30/52/52
f 83/53/53 54/54/54 11/55/55 28/56/56
f 82/57/57 57/58/58 17/59/59 58/60/60
f 81/61/61 55/62/62 15/63/63 59/64/64
f 80/65/65 62/66/66 20/67/67 63/68/68
f 79/69/69 61/70/70 19/71/71 64/72/72
f 78/73/73 67/74/74 23/75/75 68/76/76
f 77/77/77 66/78/78 22/79/79 69/80/80
f 76/81/81 72/82/82 26/83/83 73/84/84
f 75/85/85 71/86/86 25/87/87 74/88/88
f 72/82/82 75/85/85 74/88/88 26/83/83
f 14/43/43 50/38/38 75/85/85 72/82/82
f 50/38/38 10/37/37 71/86/86 75/85/85
f 70/2/2 76/81/81 73/84/84 24/3/3
f 1/89/89 38/44/44 76/81/81 70/2/2
f 38/44/44 14/43/43 72/82/82 76/81/81
f 67/74/74 77/77/77 69/80/80 23/75/75
f 11/90/55 47/91/8 77/77/77 67/74/74
f 47/91/8 3/7/7 66/78/78 77/77/77
f 65/12/12 78/73/73 68/76/76 21/13/13
f 4/92/90 28/93/56 78/73/73 65/12/12
f 28/93/56 11/90/55 67/74/74 78/73/73
f 62/66/66 79/69/69 64/72/72 20/67/67
f 12/51/51 48/18/18 79/69/69 62/66/66
f 48/18/18 5/17/17 61/70/70 79/69/69
f 60/22/22 80/65/65 63/68/68 18/23/23
f 6/94/91 30/52/52 80/65/65 60/22/22
f 30/52/52 12/51/51 62/66/66 80/65/65
f 57/58/58 81/61/61 59/64/64 17/59/59
f 13/95/47 49/96/28 81/61/61 57/58/58
f 49/96/28 7/27/27 55/62/62 81/61/61
f 56/32/32 82/57/57 58/60/60 16/33/33
f 8/97/92 33/98/48 82/57/57 56/32/32
f 33/98/48 13/95/47 57/58/58 82/57/57
f 29/4/4 83/53/53 28/56/56 4/99/90
f 24/3/3 73/84/84 83/53/53 29/4/4
f 73/84/84 26/83/83 54/54/54 83/53/53
f 31/14/14 84/49/49 30/52/52 6/94/91
f 21/13/13 68/76/76 84/49/49 31/14/14
f 68/76/76 23/75/75 53/50/50 84/49/49
f 34/24/24 85/45/45 33/48/48 8/100/92
f 18/23/23 63/68/68 85/45/45 34/24/24
f 63/68/68 20/67/67 52/46/46 85/45/45
f 46/34/34 86/41/41 38/44/44 1/89/89
f 16/33/33 58/60/60 86/41/41 46/34/34
f 58/60/60 17/59/59 51/42/42 86/41/41
f 55/62/62 87/39/39 37/36/36 15/63/63
f 7/27/27 44/30/30 87/39/39 55/62/62
f 44/30/30 9/101/93 36/40/40 87/39/39
f 51/42/42 88/35/35 50/38/38 14/43/43
f 17/59/59 59/64/64 88/35/35 51/42/42
f 59/64/64 15/63/63 37/36/36 88/35/35
f 27/102/94 89/31/31 46/34/34 1/89/89
f 2/103/95 45/104/96 89/31/31 27/102/94
f 45/104/96 8/97/92 56/32/32 89/31/31
f 61/70/70 90/29/29 35/26/26 19/71/71
f 5/17/17 42/20/20 90/29/29 61/70/70
f 42/20/20 9/101/93 44/30/30 90/29/29
f 52/46/46 91/25/25 49/28/28 13/47/47
f 20/67/67 64/72/72 91/25/25 52/46/46
f 64/72/72 19/71/71 35/26/26 91/25/25
f 45/105/96 92/21/21 34/24/24 8/100/92
f 2/106/95 43/107/97 92/21/21 45/105/96
f 43/107/97 6/94/91 60/22/22 92/21/21
f 66/78/78 93/19/19 32/16/16 22/79/79
f 3/7/7 39/10/10 93/19/19 66/78/78
f 39/10/10 9/101/93 42/20/20 93/19/19
f 53/50/50 94/15/15 48/18/18 12/51/51
f 23/75/75 69/80/80 94/15/15 53/50/50
f 69/80/80 22/79/79 32/16/16 94/15/15
f 43/107/97 95/11/11 31/14/14 6/94/91
f 2/106/95 40/108/98 95/11/11 43/107/97
f 40/108/98 4/92/90 65/12/12 95/11/11
f 71/86/86 96/9/9 41/6/6 25/87/87
f 10/37/37 36/40/40 96/9/9 71/86/86
f 36/40/40 9/101/93 39/10/10 96/9/9
f 54/54/54 97/5/5 47/8/8 11/55/55
f 26/83/83 74/88/88 97/5/5 54/54/54
f 74/88/88 25/87/87 41/6/6 97/5/5
f 40/109/98 98/1/1 29/4/4 4/99/90
f 2/103/95 27/102/94 98/1/1 40/109/98
f 27/102/94 1/89/89 70/2/2 98/1/1
