[{
	"name":"Base Layer.Idle",
	"isRootMotion":"true"
},
{
	"name":"Base Layer.RunForward",
	"isRootMotion":"true"
},
{
	"name":"Base Layer.StrafeRight",
	"isRootMotion":"true"
},
{
	"name":"Base Layer.StrafeLeft",
	"isRootMotion":"true"
},
{
	"name":"Base Layer.JumpBack",
	"isRootMotion":"true"
},
{
	"name":"Base Layer.Combo1",
	"isRootMotion":"true",
	"isAttack":"true",
	"damage":"3"
},
{
	"name":"Base Layer.GapCloser",
	"isRootMotion":"true",
	"isAttack":"true",
	"damage":"4"
},
{
	"name":"Base Layer.JumpLeft",
	"isRootMotion":"true",
	"isAttack":"true",
	"damage":"0"
},
{
	"name":"Base Layer.JumpRight",
	"isRootMotion":"true",
	"isAttack":"true",
	"damage":"0"
},
{
	"name":"Base Layer.Recovery",
	"isRootMotion":"true",
	"damaged":"true"
},
  {
    "name": "Base Layer.Damaged",
    "isRootMotion": "true",
    "damaged": "true"
  },
  {
    "name": "Base Layer.DamagedCenter",
    "isRootMotion": "true",
    "damaged": "true"
  },
  {
    "name": "Base Layer.DamagedRight",
    "isRootMotion": "true",
    "damaged": "true"
  },
  {
    "name": "Base Layer.DamagedLeft",
    "isRootMotion": "true",
    "damaged": "true"
  },
  {
    "name": "Base Layer.DamagedKnockedBack",
    "isRootMotion": "true",
    "damaged": "true"
  },
  {
	"name":"Base Layer.DamagedKnockDown",
	"isRootMotion":"true",
	"damaged":"true"
},
{
	"name":"Base Layer.KnockedUp",
	"isRootMotion":"false",
	"damaged":"true"
},
{
	"name":"Base Layer.KnockedUpFollowthrough",
	"isRootMotion":"false",
	"damaged":"true"
},
  {
    "name": "Base Layer.KnockedToGround",
    "isRootMotion": "false",
    "damaged": "true"
  },
   {
    "name": "Base Layer.ProneStandUp",
    "isRootMotion": "true",
    "damaged": "true"
  },
  {
    "name": "Base Layer.Falling",
    "isRootMotion": "false",
    "damaged": "true"
  },
  {
	"name":"Base Layer.GroundImpact",
	"isRootMotion":"true",
	"damaged":"true"
},
{
	"name":"Base Layer.AirDamaged",
	"isRootMotion":"false",
  "damaged":"true"
}
]